{
  "name": "<%= _.slugify(baseName) %>",
  "version": "0.0.0",
  "description": "Description for <%= baseName %>",
  "dependencies": {
  },
  "devDependencies": {
    "grunt": "0.4.5",
    "grunt-autoprefixer": "0.7.5",
    "grunt-build-control": "0.1.3",
    "grunt-wiredep": "1.8.0",
    "grunt-cli": "0.1.13",
    "grunt-contrib-copy": "0.5.0",
    "grunt-concurrent": "0.5.0",
    "grunt-connect-proxy": "0.1.10",
    "grunt-contrib-clean": "0.5.0",
    "grunt-contrib-concat": "0.4.0",
    "grunt-contrib-connect": "0.8.0",
    "grunt-contrib-cssmin": "0.9.0",
    "grunt-contrib-htmlmin": "0.3.0",
    "grunt-contrib-imagemin": "0.7.1",
    "grunt-contrib-jshint": "0.10.0",
    "grunt-contrib-uglify": "0.4.0",
    "grunt-contrib-watch": "0.6.1",
    "grunt-modernizr": "0.5.2",
    "grunt-ng-annotate": "0.3.2",
    "grunt-rev": "0.1.0",
    "grunt-svgmin": "0.4.0",
    "grunt-text-replace": "0.3.12",
    "grunt-usemin": "2.2.0",
    "grunt-angular-templates":"0.5.7",
    "load-grunt-tasks": "0.5.0",
    "grunt-karma": "0.8.3",
    "time-grunt": "0.3.2",
    "gulp": "3.8.9",
    "gulp-util": "3.0.2",
    "gulp-usemin": "0.3.1",
    "gulp-autoprefixer": "0.0.7",
    "gulp-minify-css": "0.3.3",
    "gulp-uglify": "0.2.1",
    "gulp-minify-html": "0.1.3",
    "gulp-if": "^1.2.5",
    "gulp-imagemin": "0.5.0",
    "gulp-flatten": "0.0.2",
    "gulp-ng-annotate": "0.3.0",
    "gulp-connect": "2.0.6",
    "gulp-clean": "0.2.4",
    "gulp-karma": "https://github.com/lazd/gulp-karma/tarball/helper",
    "gulp-replace": "0.2.0",
    "gulp-rev": "0.3.2",
    "gulp-jshint": "1.5.5",
    "event-stream": "3.1.5",
    "jshint-stylish": "^1.0.0",
    "karma-script-launcher": "0.1.0",
    "karma-chrome-launcher": "0.1.4",
    "karma-html2js-preprocessor": "0.1.0",
    "karma-jasmine": "0.2.2",
    "karma-requirejs": "0.2.2",
    "karma-phantomjs-launcher": "0.1.4",
    "karma": "0.12.16",
    "bower": "1.3.12",
    "generator-jhipster": "<%= packagejs.version %>",
    "lodash": "2.4.1",
    "zeparser": "0.0.7",
    "wiredep": "1.8.6"
  },
  "engines": {
    "node": ">=0.10.0"
  }
}
